{
 "creation": "2021-01-04 07:25:41.528493",
 "doctype": "DocType",
 "editable_grid": 1,
 "engine": "InnoDB",
 "field_order": [
  "encabezado",
  "generar"
 ],
 "fields": [
  {
   "fieldname": "encabezado",
   "fieldtype": "Heading",
   "label": "Aqu\u00ed podr\u00e1 generar la base de datos para la aplicaci\u00f3n m\u00f3vil"
  },
  {
   "fieldname": "generar",
   "fieldtype": "Button",
   "label": "Generar"
  }
 ],
 "issingle": 1,
 "modified": "2021-01-04 07:28:48.034020",
 "modified_by": "Administrator",
 "module": "jaap",
 "name": "Appovil",
 "owner": "Administrator",
 "permissions": [
  {
   "create": 1,
   "delete": 1,
   "email": 1,
   "print": 1,
   "read": 1,
   "role": "System Manager",
   "share": 1,
   "write": 1
  }
 ],
 "quick_entry": 1,
 "sort_field": "modified",
 "sort_order": "DESC",
 "track_changes": 1
}