{
 "actions": [],
 "allow_rename": 1,
 "creation": "2022-07-03 08:41:38.288804",
 "doctype": "DocType",
 "editable_grid": 1,
 "engine": "InnoDB",
 "field_order": [
  "almacen",
  "direccion"
 ],
 "fields": [
  {
   "fieldname": "almacen",
   "fieldtype": "Link",
   "in_list_view": 1,
   "label": "Almac\u00e9n",
   "options": "Almacenes",
   "reqd": 1
  },
  {
   "fetch_from": "almacen.direccion",
   "fieldname": "direccion",
   "fieldtype": "Read Only",
   "in_list_view": 1,
   "label": "Direcci\u00f3n"
  }
 ],
 "index_web_pages_for_search": 1,
 "istable": 1,
 "links": [],
 "modified": "2022-07-03 08:42:53.264821",
 "modified_by": "Administrator",
 "module": "mod_inventarios",
 "name": "producto_en_almacen",
 "owner": "Administrator",
 "permissions": [],
 "sort_field": "modified",
 "sort_order": "DESC"
}