{
 "actions": [],
 "creation": "2019-07-30 18:39:15.631424",
 "doctype": "DocType",
 "editable_grid": 1,
 "engine": "InnoDB",
 "field_order": [
  "almacen",
  "cantidad"
 ],
 "fields": [
  {
   "fieldname": "almacen",
   "fieldtype": "Link",
   "in_list_view": 1,
   "label": "Almac\u00e9n",
   "options": "Almacenes",
   "read_only": 1,
   "reqd": 1
  },
  {
   "fieldname": "cantidad",
   "fieldtype": "Float",
   "in_list_view": 1,
   "label": "Cantidad",
   "read_only": 1
  }
 ],
 "istable": 1,
 "links": [],
 "modified": "2022-07-04 17:33:14.248556",
 "modified_by": "Administrator",
 "module": "mod_inventarios",
 "name": "producto_almacen",
 "owner": "Administrator",
 "permissions": [],
 "quick_entry": 1,
 "sort_field": "modified",
 "sort_order": "DESC",
 "track_changes": 1
}