{
 "actions": [],
 "allow_rename": 1,
 "autoname": "naming_series:",
 "creation": "2024-06-13 18:58:31.233053",
 "doctype": "DocType",
 "engine": "InnoDB",
 "field_order": [
  "tipo_documento",
  "establecimiento",
  "punto_emision",
  "secuencia",
  "pk",
  "naming_series"
 ],
 "fields": [
  {
   "fieldname": "establecimiento",
   "fieldtype": "Data",
   "in_standard_filter": 1,
   "label": "Establecimiento"
  },
  {
   "fieldname": "tipo_documento",
   "fieldtype": "Select",
   "in_standard_filter": 1,
   "label": "Tipo Documento",
   "options": "FA\nNC\nND\nRE\nGR"
  },
  {
   "fieldname": "secuencia",
   "fieldtype": "Data",
   "label": "Ultimo Secuencial"
  },
  {
   "fieldname": "pk",
   "fieldtype": "Data",
   "label": "Etiqueta",
   "read_only": 1,
   "unique": 1
  },
  {
   "fieldname": "punto_emision",
   "fieldtype": "Data",
   "in_standard_filter": 1,
   "label": "Puntos de emision"
  },
  {
   "fieldname": "naming_series",
   "fieldtype": "Code",
   "hidden": 1,
   "label": "codigo",
   "options": "SEQ-"
  }
 ],
 "index_web_pages_for_search": 1,
 "links": [],
 "modified": "2024-06-14 04:40:55.611958",
 "modified_by": "Administrator",
 "module": "Next",
 "name": "sequencias_facturacion",
 "naming_rule": "By \"Naming Series\" field",
 "owner": "Administrator",
 "permissions": [
  {
   "create": 1,
   "delete": 1,
   "email": 1,
   "export": 1,
   "print": 1,
   "read": 1,
   "report": 1,
   "role": "System Manager",
   "share": 1,
   "write": 1
  },
  {
   "create": 1,
   "delete": 1,
   "email": 1,
   "export": 1,
   "print": 1,
   "read": 1,
   "report": 1,
   "role": "EMPRESA - FACTURACION",
   "share": 1,
   "write": 1
  },
  {
   "create": 1,
   "delete": 1,
   "email": 1,
   "export": 1,
   "print": 1,
   "read": 1,
   "report": 1,
   "role": "EMPRESA - ADMINISTRADOR",
   "share": 1,
   "write": 1
  }
 ],
 "sort_field": "modified",
 "sort_order": "DESC",
 "states": [],
 "title_field": "pk"
}