{
 "actions": [],
 "autoname": "naming_series:",
 "creation": "2020-01-05 12:35:55.799203",
 "doctype": "DocType",
 "editable_grid": 1,
 "engine": "InnoDB",
 "field_order": [
  "fecha",
  "naming_series",
  "lista_cajas",
  "valor",
  "column_break_4",
  "descripcion",
  "amended_from",
  "emisor"
 ],
 "fields": [
  {
   "fieldname": "naming_series",
   "fieldtype": "Code",
   "label": "C\u00f3digo",
   "options": "EGRESO-",
   "read_only": 1
  },
  {
   "default": "Today",
   "fieldname": "fecha",
   "fieldtype": "Date",
   "in_list_view": 1,
   "label": "Fecha",
   "reqd": 1
  },
  {
   "fieldname": "descripcion",
   "fieldtype": "Small Text",
   "in_list_view": 1,
   "label": "Descripci\u00f3n",
   "reqd": 1
  },
  {
   "fieldname": "valor",
   "fieldtype": "Currency",
   "in_list_view": 1,
   "label": "valor",
   "reqd": 1
  },
  {
   "fieldname": "amended_from",
   "fieldtype": "Link",
   "label": "Amended From",
   "no_copy": 1,
   "options": "EgresosCaja",
   "print_hide": 1,
   "read_only": 1
  },
  {
   "fieldname": "emisor",
   "fieldtype": "Link",
   "hidden": 1,
   "label": "Emisor",
   "options": "Emisor"
  },
  {
   "fieldname": "lista_cajas",
   "fieldtype": "Link",
   "label": "lista_cajas",
   "options": "lista_cajas",
   "reqd": 1
  },
  {
   "fieldname": "column_break_4",
   "fieldtype": "Column Break"
  }
 ],
 "is_submittable": 1,
 "links": [],
 "modified": "2023-08-24 12:09:57.080422",
 "modified_by": "Administrator",
 "module": "mod_bancos",
 "name": "EgresosCaja",
 "naming_rule": "By \"Naming Series\" field",
 "owner": "Administrator",
 "permissions": [
  {
   "create": 1,
   "delete": 1,
   "email": 1,
   "export": 1,
   "print": 1,
   "read": 1,
   "report": 1,
   "role": "System Manager",
   "share": 1,
   "write": 1
  },
  {
   "cancel": 1,
   "create": 1,
   "delete": 1,
   "email": 1,
   "export": 1,
   "print": 1,
   "read": 1,
   "report": 1,
   "role": "EMPRESA - ADMINISTRADOR",
   "share": 1,
   "submit": 1,
   "write": 1
  },
  {
   "email": 1,
   "export": 1,
   "print": 1,
   "read": 1,
   "report": 1,
   "role": "EMPRESA -COMPRAS",
   "share": 1
  },
  {
   "create": 1,
   "delete": 1,
   "email": 1,
   "export": 1,
   "print": 1,
   "read": 1,
   "report": 1,
   "role": "EMPRESA - FACTURACION",
   "share": 1,
   "write": 1
  }
 ],
 "sort_field": "modified",
 "sort_order": "DESC",
 "states": [],
 "track_changes": 1
}