{
 "add_total_row": 1,
 "columns": [],
 "creation": "2020-09-15 14:50:39.852840",
 "disable_prepared_report": 0,
 "disabled": 0,
 "docstatus": 0,
 "doctype": "Report",
 "filters": [],
 "idx": 0,
 "is_standard": "Yes",
 "modified": "2023-08-24 11:09:07.857462",
 "modified_by": "Administrator",
 "module": "Next",
 "name": "Reporte de Kardex",
 "owner": "Administrator",
 "prepared_report": 0,
 "query": "SELECT\n`tabKardex`.fecha as \"Fecha:Date:110\",\n  `tabKardex`.producto  as \"Cod. Producto:Link/Productos:250\",\n    `tabKardex`.nproducto  as \"Producto:Link/Productos:400\",\n   `tabKardex`.detalle as \"Detalle:Text:180\",\n  `tabKardex`.cantidad as \"Cantidad:Double:100\",\n   `tabKardex`.valoru as \"Precio U.:Double:100\",\n  `tabKardex`.total as \"total:Currency:100\"\nFROM  tabKardex  where  producto = %(inproducto)s",
 "ref_doctype": "Kardex",
 "report_name": "Reporte de Kardex",
 "report_type": "Query Report",
 "roles": [
  {
   "role": "System Manager"
  },
  {
   "role": "All"
  }
 ]
}