{
 "actions": [],
 "allow_rename": 1,
 "autoname": "naming_series:",
 "creation": "2022-06-20 06:18:34.157837",
 "doctype": "DocType",
 "editable_grid": 1,
 "engine": "InnoDB",
 "field_order": [
  "fecha",
  "lista_cajas",
  "nonto",
  "naming_series"
 ],
 "fields": [
  {
   "fieldname": "fecha",
   "fieldtype": "Date",
   "in_list_view": 1,
   "label": "Fecha",
   "reqd": 1
  },
  {
   "fieldname": "nonto",
   "fieldtype": "Currency",
   "in_list_view": 1,
   "label": "Monto de Apertura",
   "reqd": 1
  },
  {
   "fieldname": "naming_series",
   "fieldtype": "Code",
   "hidden": 1,
   "options": "AC-.YYYY.-"
  },
  {
   "fieldname": "lista_cajas",
   "fieldtype": "Link",
   "label": "Caja",
   "options": "lista_cajas",
   "reqd": 1
  }
 ],
 "index_web_pages_for_search": 1,
 "links": [],
 "modified": "2023-08-24 12:12:16.629737",
 "modified_by": "Administrator",
 "module": "mod_cajas",
 "name": "apertura_caja",
 "naming_rule": "By \"Naming Series\" field",
 "owner": "Administrator",
 "permissions": [
  {
   "create": 1,
   "delete": 1,
   "email": 1,
   "export": 1,
   "print": 1,
   "read": 1,
   "report": 1,
   "role": "System Manager",
   "share": 1,
   "write": 1
  },
  {
   "create": 1,
   "delete": 1,
   "email": 1,
   "export": 1,
   "print": 1,
   "read": 1,
   "report": 1,
   "role": "EMPRESA - ADMINISTRADOR",
   "share": 1,
   "write": 1
  },
  {
   "create": 1,
   "delete": 1,
   "email": 1,
   "export": 1,
   "print": 1,
   "read": 1,
   "report": 1,
   "role": "EMPRESA - FACTURACION",
   "share": 1,
   "write": 1
  },
  {
   "email": 1,
   "export": 1,
   "print": 1,
   "read": 1,
   "report": 1,
   "role": "EMPRESA -COMPRAS",
   "share": 1
  }
 ],
 "sort_field": "modified",
 "sort_order": "DESC",
 "states": []
}