{
 "content": null,
 "creation": "2022-08-11 19:15:31.768610",
 "docstatus": 0,
 "doctype": "Page",
 "idx": 0,
 "modified": "2022-08-11 19:15:31.768610",
 "modified_by": "Administrator",
 "module": "mod_inventarios",
 "name": "factura_rapida",
 "owner": "Administrator",
 "page_name": "factura_rapida",
 "restrict_to_domain": "",
 "roles": [],
 "script": null,
 "standard": "Yes",
 "style": null,
 "system_page": 0,
 "title": "factura_rapida"
}