{
 "actions": [],
 "autoname": "naming_series:",
 "creation": "2020-01-05 12:14:56.679619",
 "doctype": "DocType",
 "editable_grid": 1,
 "engine": "InnoDB",
 "field_order": [
  "cedula",
  "nombre",
  "celular",
  "telefono",
  "direccion",
  "genero",
  "cargorrhh",
  "compleanios",
  "naming_series"
 ],
 "fields": [
  {
   "fieldname": "cedula",
   "fieldtype": "Data",
   "in_list_view": 1,
   "label": "Cedula",
   "reqd": 1
  },
  {
   "fieldname": "nombre",
   "fieldtype": "Data",
   "in_list_view": 1,
   "label": "Nombres",
   "reqd": 1,
   "unique": 1
  },
  {
   "fieldname": "celular",
   "fieldtype": "Data",
   "label": "Celular"
  },
  {
   "fieldname": "telefono",
   "fieldtype": "Data",
   "label": "Telefono"
  },
  {
   "fieldname": "direccion",
   "fieldtype": "Small Text",
   "label": "Direccion"
  },
  {
   "fieldname": "genero",
   "fieldtype": "Select",
   "label": "Genero",
   "options": "MASCULINO\nFEMENINO"
  },
  {
   "fieldname": "cargorrhh",
   "fieldtype": "Link",
   "label": "Cargo",
   "options": "CargoRRHH"
  },
  {
   "fieldname": "compleanios",
   "fieldtype": "Date",
   "label": "Cumple\u00f1os"
  },
  {
   "fieldname": "naming_series",
   "fieldtype": "Code",
   "options": "EMP-",
   "read_only": 1
  }
 ],
 "links": [],
 "modified": "2023-08-24 12:19:44.154501",
 "modified_by": "Administrator",
 "module": "mod_rrhh",
 "name": "Empleados",
 "naming_rule": "By \"Naming Series\" field",
 "owner": "Administrator",
 "permissions": [
  {
   "create": 1,
   "delete": 1,
   "email": 1,
   "export": 1,
   "print": 1,
   "read": 1,
   "report": 1,
   "role": "System Manager",
   "share": 1,
   "write": 1
  },
  {
   "create": 1,
   "delete": 1,
   "email": 1,
   "export": 1,
   "print": 1,
   "read": 1,
   "report": 1,
   "role": "EMPRESA - ADMINISTRADOR",
   "share": 1,
   "write": 1
  },
  {
   "email": 1,
   "export": 1,
   "print": 1,
   "read": 1,
   "report": 1,
   "role": "EMPRESA - FACTURACION",
   "share": 1
  },
  {
   "email": 1,
   "export": 1,
   "print": 1,
   "read": 1,
   "report": 1,
   "role": "EMPRESA - VENDEDOR",
   "share": 1
  },
  {
   "email": 1,
   "export": 1,
   "print": 1,
   "read": 1,
   "report": 1,
   "role": "EMPRESA -COMPRAS",
   "share": 1
  }
 ],
 "quick_entry": 1,
 "search_fields": "cedula,nombre",
 "show_title_field_in_link": 1,
 "sort_field": "modified",
 "sort_order": "DESC",
 "states": [],
 "title_field": "nombre",
 "track_changes": 1
}