{
 "actions": [],
 "allow_rename": 1,
 "creation": "2022-07-02 14:37:15.230863",
 "doctype": "DocType",
 "editable_grid": 1,
 "engine": "InnoDB",
 "field_order": [
  "plandecuentas",
  "ncuenta",
  "debito",
  "credito"
 ],
 "fields": [
  {
   "fieldname": "plandecuentas",
   "fieldtype": "Link",
   "in_list_view": 1,
   "label": "Cuenta",
   "options": "plandecuentas",
   "reqd": 1
  },
  {
   "fetch_from": "plandecuentas.descripcion",
   "fieldname": "ncuenta",
   "fieldtype": "Read Only",
   "label": "Descripci\u00f3n"
  },
  {
   "default": "0",
   "fieldname": "debito",
   "fieldtype": "Currency",
   "in_list_view": 1,
   "label": "Debito",
   "reqd": 1
  },
  {
   "default": "0",
   "fieldname": "credito",
   "fieldtype": "Currency",
   "in_list_view": 1,
   "label": "Cr\u00e9dito",
   "reqd": 1
  }
 ],
 "index_web_pages_for_search": 1,
 "istable": 1,
 "links": [],
 "modified": "2023-09-25 20:59:51.369730",
 "modified_by": "Administrator",
 "module": "mod_contabilidad",
 "name": "libro_diario_detalle",
 "owner": "Administrator",
 "permissions": [],
 "sort_field": "modified",
 "sort_order": "DESC",
 "states": []
}