{
 "absolute_value": 0,
 "align_labels_right": 0,
 "creation": "2022-06-29 08:35:03.703258",
 "css": "@media screen{  \r\n.print-format{\r\nmax-width: 13in;\r\npadding: 0.00in;  \r\n min-height: 8.5in;  \r\n    }\r\n}\r\n.divBarCode{\r\n    padding-top:5px !important;\r\n    font-size:7px  !important; \r\n}\r\n.divBarCode>svg>rect{\r\n    fill: none;\r\n    max-width: 160px;\r\n}\r\n.divBarCode img>g>svg>text {\r\n    font-size:7px !important; \r\n}\r\n \r\n .tableContainer td {\r\nword-wrap: break-word;\r\n border-collapse: collapse;\r\n text-align:left;\r\n   \r\n}\r\n\r\n .tableContainer th {\r\nbackground-color:#E0DEDE;\r\n\r\n}\r\n.tableContainer tr  {\r\noverflow: hidden;\r\n line-height:2px;\r\n font-size:10px  !important; \r\nheight: 0;\r\n}\r\n \r\n.cabecera {\r\n     \r\n  \r\n    border: 1px solid black;\r\n    border-radius: 15px;\r\n    -moz-border-radius: 15px;\r\n    \r\n    -webkit-border-radius: 15px;\r\n}\r\n.clase_table {\r\n    border-collapse: separate;\r\n      font-size:12px !important; \r\n    border-radius: 15px;\r\n}\r\n\r\n.clase_table tr  {\r\n \r\n line-height:10px;\r\nheight: 18px;\r\n}\r\n\r\n#footer{\r\nposition:relative;\r\nbutton:20px;\r\n}\r\n",
 "custom_format": 1,
 "default_print_language": "es",
 "disabled": 0,
 "doc_type": "Factura en Ventas",
 "docstatus": 0,
 "doctype": "Print Format",
 "font": "Default",
 "font_size": 0,
 "html": "<!DOCTYPE html>\r\n{%set compania = frappe.get_doc(\"Emisor\",doc.emisor)%}\r\n{% set almacen= frappe.get_doc(\"Almacenes\",doc.estab)  %}\r\n{% set cliente= frappe.get_doc(\"Clientes\",doc.cliente)  %}\r\n \r\n<table width=\"100%\" class=\"clase_table\">\r\n<tr>\r\n<td style=\" text-align: center; border-top-width: 1px;\r\nborder-top-style: solid;\r\nborder-top-color: white; border-left-width: 1px;\r\nborder-left-style: solid;\r\npadding:30px;\r\nborder-left-color: white;\" > \r\n<img style=\"height:160px !important;\" src='{{compania.logo}}'/> \r\n</td>\r\n<td width=\"60%\" rowspan=\"2\" class=\"cabecera\">\r\n<table style=\"width:100%;height:auto;\"   >\r\n<tr>\r\n<td> <b>R.U.C:&nbsp;</b> {{compania.ruc}}</td>\r\n\r\n</tr>\r\n<tr>\r\n<td><b>F A C T U R A</b></td>\r\n</tr>\r\n<tr>\r\n<td><b>No.&nbsp; &nbsp; &nbsp; &nbsp;&nbsp;</b>{{doc.num_fac}}</td>\r\n</tr>\r\n<tr>\r\n<td><b>NUMERO DE AUTORIZACION</b></td>\r\n</tr>\r\n<tr>\r\n<td style=\"font-size: x-small;\">{{doc.clavedeacceso}}</td>\r\n</tr>\r\n<tr>\r\n<td><b>FECHA Y HORA DE AUTORIZACION: </b>{{doc.fecha_auto}}</td>\r\n</tr>\r\n<tr>\r\n<td><b>AMBIENTE:</b> {{compania.tipo_ambiente}}</td>\r\n</tr>\r\n<tr>\r\n<td><b>EMISION:</b> NORMAL</td>\r\n</tr>\r\n<tr>\r\n<td > CLAVE DE ACCESO \r\n\r\n<img class=\"divBarCode\" src='data:image/svg+xml;utf8,{{doc.barcode_ca}} '>\r\n\r\n</td>\r\n</tr>\r\n</table>\r\n</td>\r\n</tr>\r\n<tr>\r\n<td width=\"49%\" class=\"cabecera\">\r\n<table style=\"width:100%;height:auto;font-size: 12px;\"  >\r\n<tr style=\"text-align: center;\">\r\n<td colspan=\"2\"><b>{{compania.razon_social}}</b></td>\r\n\r\n</tr>\r\n<tr>\r\n<td><b>Matriz: </b></td>\r\n<td ><p> {{compania.direccion_establecimiento}}</p></td>\r\n</tr>\r\n<tr>\r\n<td><b>Sucursal:</b></td>\r\n{%-if almacen.direccion != \"\" and compania.direccion_establecimiento != None -%}\r\n<td ><p> {{almacen.direccion }}</p></td>\r\n{%-else -%}\r\n<td  ><p> {{compania.direccion_establecimiento}}</p></td>\r\n{%- endif -%}\r\n</tr>\r\n{%-if compania.contribuyente != None and compania.contribuyente != '' -%}\r\n<tr>\r\n<td colspan=\"2\" style= \"font-size: x-small;\"><b>Contribuyente Especial Nro.:</b> {{compania.contribuyente}}</td>\r\n</tr>\r\n{%- endif -%}\r\n<tr>\r\n<td colspan=\"2\"><b> OBLIGADO A LLEVAR CONTABILIDAD:</b> {{compania.obligado}}</td>\r\n</tr>\r\n<tr>\r\n<td colspan=\"2\"> <b> {{compania.regimen or \"\"}} </b> </td>\r\n</tr>\r\n \r\n</table>\r\n</td>\r\n</tr>\r\n</table>\r\n<div style=\"margin:auto;width:100%;height:auto;margin-top:2px;background-color:white;\">\r\n<div style=\"width:100%;height:auto;margin-top:5px;background-color:white;\">\r\n<table class=\"tableContainer\" style=\"width:100%;height:auto;background-color:white;border :1px solid black;font-size: 12px;\" FRAME=\"border\" RULES=\"none\" >\r\n<tr>\r\n<td><b>Raz\u00f3n Social/ Nombres y Apellidos: </b> {{cliente.nombres}}</td>\r\n<td><b>Identificaci\u00f3n: </b> {{cliente.ruc}}</td>\r\n\r\n</tr>\r\n<tr>\r\n<td><b>Fecha Emisi\u00f3n: </b>{{doc.fechaemision }}</td>\r\n \r\n\r\n</tr>\r\n<tr>\r\n{%-if cliente.direccion != None -%}\r\n<td colspan=\"2\"><b>Direcci\u00f3n: </b>{{cliente.direccion}}</td>\r\n{%-else -%}\r\n<td colspan=\"2\"><b>Direcci\u00f3n: </b></td>\r\n{%- endif -%}\r\n\r\n</tr>\r\n\r\n</table>\r\n</div>\r\n<div style=\"width:100%;height:auto;margin-top:5px;background-color:white;font-size: 11px;\">\r\n<table border=\"1\" width=\"100%\" style=\"border :1px solid black;\"  class=\"tableContainer\" >\r\n<tr style=\"text-align: center; font-weight: bold;\">\r\n<td><p>Cod. Principal</p></td>\r\n<td><p>Cantidad</p></td>\r\n<td><p>Descripci\u00f3n</p></td>\r\n<td><p>Precio Unitario</p></td>\r\n<td><p>Descuento</p></td>\r\n<td><p>Precio Total</p></td>\r\n</tr>\r\n{%- for p in doc.detalles_facventas -%}\r\n<tr style=\"text-align: center;\">\r\n<td><p>{{p.codigoprincipal or p.producto}}</p></td>\r\n<td><p>{{p.cantidad}}</p></td>\r\n<td ><p>{{p.nproducto}}</p></td>\r\n<td style=\"text-align: right;\"><p >{{ \"${:,.2f}\".format(p.preciounitario)}}</p></td>\r\n<td style=\"text-align: right;\"><p>{{ \"${:,.2f}\".format(p.descuento)}}</p></td>\r\n<td style=\"text-align: right;\"><p>{{ \"${:,.2f}\".format(p.preciototalsinimpuesto)}}</p></td>\r\n</tr>\r\n{%- endfor -%}\r\n</table>\r\n</div>\r\n<div style=\"float:right;width:35%;height:auto;background-color:white; margin-top:5px;\">\r\n\r\n<table class=\"tableContainer\" border=\"1\" style= \"width:100%;font-size: 12px;border :1px solid black;\">\r\n \r\n\r\n\r\n \r\n\r\n<tr>\r\n<td>SUBTOTAL IVA 0%</td>\r\n<td style=\"text-align: right;\">{{ \"${:,.2f}\".format(doc.subtotal0)  }}</td>\r\n</tr>\r\n<tr>\r\n<td>SUBTOTAL NO OBJETO DE IVA</td>\r\n<td style=\"text-align: right;\">{{  \"${:,.2f}\".format(doc.noobjetoiva)  }}</td>\r\n</tr>\r\n<tr>\r\n<td>SUBTOTAL {{doc.iva_etiqueta}}%</td> \r\n<td style=\"text-align: right;\">{{\"${:,.2f}\".format(doc.totalsinimpuestos)  }}</td>\r\n</tr>\r\n<tr>\r\n<td>SUBTOTAL IVA 0%</td>\r\n<td style=\"text-align: right;\">{{\"${:,.2f}\".format(0.00)  }} </td>\r\n</tr>\r\n<tr>\r\n<tr>\r\n<td>SUBTOTAL EXENTO DE IVA</td>\r\n<td style=\"text-align: right;\"> {{\"${:,.2f}\".format(0.00)  }} </td>\r\n</tr>\r\n \r\n\r\n\r\n<tr>\r\n<td>SUBTOTAL SIN IMPUESTOS</td>\r\n<td style=\"text-align: right;\">{{\"${:,.2f}\".format(doc.totalsinimpuestos + doc.subtotal0) }}</td>\r\n</tr>\r\n<tr>\r\n<td>TOTAL DESCUENTO</td>\r\n<td style=\"text-align: right;\">{{ \"${:,.2f}\".format(doc.totaldescuento)}}</td>\r\n</tr>\r\n<tr>\r\n<td>IVA {{doc.iva_etiqueta}}%</td>\r\n<td style=\"text-align: right;\">{{ \"${:,.2f}\".format(doc.iva_total) }}</td>\r\n</tr>\r\n <tr>\r\n<td>ICE</td>\r\n<td style=\"text-align: right;\">{{ \"${:,.2f}\".format(0) }}</td>\r\n</tr>\r\n<tr>\r\n<td>VALOR TOTAL</td>\r\n<td style=\"text-align: right;\">{{   \"${:,.2f}\".format(doc.importetotal) }}</td>\r\n</tr>\r\n</table>\r\n</div>\r\n<div style=\"float:left;width:64%;height:20%;margin-top:5px;background-color:white;overflow: hidden; \" >\r\n\r\n\r\n\r\n<table style=\"width:100%;height:auto;background-color:white;border :1px solid black; \" FRAME=\"border\" >\r\n<tr style=\"text-align: center;font-weight: bold; font-size: x-small;\">\r\n<td colspan=\"2\"><p style =\"border-bottom: thin solid black;\">Informaci\u00f3n Adicional</p></td>\r\n</tr>\r\n{%- for p in doc.infoadicional -%}\r\n<tr style=\"font-size: 11px; \" border=\"0\" cellpadding=\"0\" cellspacing=\"0\">\r\n<td style=\"width:50%;word-wrap: word-break ;\">{{p.nombre}}</td>\r\n<td style=\"width:30%;text-align: left;word-wrap: word-break\">\r\n{{p.valor}}\r\n\r\n</td>\r\n</tr >\r\n{%- endfor -%}\r\n\r\n</table>\r\n<table style=\"width:100%;height:auto;margin-top:5px;background-color:white;border :1px solid black;\" border=\"1\">\r\n<tr style=\"text-align: center;font-weight: bold;font-size: x-small;\">\r\n<td style=\"width:70%;word-wrap: word-break\">Formato de Pago</td>\r\n<td style=\"width:30%;word-wrap: word-break\">Valor</td>\r\n</tr>\r\n<tr style=\"font-size: x-small;\" >\r\n<td style=\"width:70%;word-wrap: word-break\">{{doc.formapago}} </td>\r\n<td style=\"width:30%;text-align: left;text-align: right;word-wrap: word-break\">\r\n{{ \"${:,.2f}\".format(doc.importetotal) }}\r\n</tr>\r\n\r\n</table>\r\n</div>\r\n\r\n</div>\r\n ",
 "idx": 0,
 "line_breaks": 0,
 "margin_bottom": 0.0,
 "margin_left": 0.0,
 "margin_right": 0.0,
 "margin_top": 0.0,
 "modified": "2024-03-30 06:47:57.215573",
 "modified_by": "Administrator",
 "module": "mod_ventas",
 "name": "RIDE-FACTURA",
 "owner": "Administrator",
 "print_format_builder": 0,
 "print_format_builder_beta": 0,
 "print_format_type": "Jinja",
 "raw_printing": 0,
 "show_section_headings": 0,
 "standard": "Yes"
}