{
 "content": null,
 "creation": "2022-06-11 17:51:02.359016",
 "docstatus": 0,
 "doctype": "Page",
 "idx": 0,
 "modified": "2022-06-18 11:17:55.403012",
 "modified_by": "Administrator",
 "module": "mod_bancos",
 "name": "saldo_clientes",
 "owner": "Administrator",
 "page_name": "saldo_clientes",
 "roles": [
  {
   "role": "EMPRESA - ADMINISTRADOR"
  }
 ],
 "script": null,
 "standard": "Yes",
 "style": null,
 "system_page": 0,
 "title": "Saldo Clientes"
}