{
 "absolute_value": 0,
 "align_labels_right": 0,
 "creation": "2023-12-08 14:48:35.914233",
 "css": "@media screen {\r\n  .print-format {\r\n    max-width: 6.2cm;\r\n    min-height: 8.5in;\r\n    padding: 0!important; \r\n    margin-top: 2mm;\r\n    margin-bottom: 5mm;\r\n  }\r\n}  ",
 "custom_format": 1,
 "default_print_language": "es",
 "disabled": 0,
 "doc_type": "frmproductos_precios",
 "docstatus": 0,
 "doctype": "Print Format",
 "font_size": 14,
 "html": "   {% set prod   = frappe.get_doc('Productos', doc.productos)  %}\n   \n   <div>{{ prod.codbarra  }}  </div>\n   <div>  {{prod.nombre }} </div>\n    <div>${{\"%.2f\"|format(doc.precio_coniva)}}  </div>\n ",
 "idx": 0,
 "line_breaks": 0,
 "margin_bottom": 15.0,
 "margin_left": 15.0,
 "margin_right": 15.0,
 "margin_top": 15.0,
 "modified": "2023-12-12 05:22:26.827360",
 "modified_by": "Administrator",
 "module": "mod_inventarios",
 "name": "etiquetas",
 "owner": "Administrator",
 "page_number": "Hide",
 "print_format_builder": 0,
 "print_format_builder_beta": 0,
 "print_format_type": "Jinja",
 "raw_printing": 0,
 "show_section_headings": 0,
 "standard": "Yes"
}