{
 "actions": [],
 "allow_rename": 1,
 "autoname": "naming_series:",
 "creation": "2022-11-16 11:08:24.270276",
 "doctype": "DocType",
 "editable_grid": 1,
 "engine": "InnoDB",
 "field_order": [
  "naming_series",
  "fechaemision",
  "proveedores",
  "numdocsustento",
  "nombre_proveedor",
  "total",
  "column_break_4",
  "secuencial",
  "fecha_del_documento_a_modificar",
  "section_break_12",
  "comprobante_retencion_detalle",
  "section_break_13",
  "informacion_adicional",
  "amended_from",
  "section_break_17",
  "claveacceso",
  "estadosri",
  "fechahora",
  "mensajesri",
  "section_break_21",
  "barcode_ca",
  "ptoemi",
  "emisor",
  "sri_ambiente",
  "sri_establecimiento",
  "num_fac"
 ],
 "fields": [
  {
   "default": "Today",
   "fieldname": "fechaemision",
   "fieldtype": "Date",
   "label": "Fecha Emisi\u00f3n",
   "read_only": 1,
   "reqd": 1
  },
  {
   "fieldname": "proveedores",
   "fieldtype": "Link",
   "label": "Proveedor",
   "options": "Proveedores",
   "reqd": 1
  },
  {
   "fieldname": "column_break_4",
   "fieldtype": "Column Break"
  },
  {
   "fieldname": "secuencial",
   "fieldtype": "Data",
   "label": "secuencial",
   "read_only": 1
  },
  {
   "fieldname": "numdocsustento",
   "fieldtype": "Link",
   "label": "Factura A modificar",
   "options": "Factura de Compras",
   "reqd": 1
  },
  {
   "fetch_from": "numdocsustento.fechaemision",
   "fieldname": "fecha_del_documento_a_modificar",
   "fieldtype": "Date",
   "label": "Fecha del Documento a Modificar",
   "read_only": 1
  },
  {
   "fieldname": "section_break_12",
   "fieldtype": "Section Break"
  },
  {
   "fieldname": "comprobante_retencion_detalle",
   "fieldtype": "Table",
   "label": "Detalle Impuestos",
   "options": "comprobante_retencion_detalle",
   "reqd": 1
  },
  {
   "fieldname": "section_break_13",
   "fieldtype": "Section Break"
  },
  {
   "fieldname": "claveacceso",
   "fieldtype": "Data",
   "label": "Clave de Acceso",
   "read_only": 1
  },
  {
   "fieldname": "informacion_adicional",
   "fieldtype": "Table",
   "label": "Informaci\u00f3n Adicional",
   "options": "infoAdicional"
  },
  {
   "fieldname": "total",
   "fieldtype": "Currency",
   "in_list_view": 1,
   "label": "Total Retenci\u00f3n",
   "read_only": 1
  },
  {
   "fetch_from": "proveedores.nombres",
   "fieldname": "nombre_proveedor",
   "fieldtype": "Data",
   "hidden": 1,
   "in_list_view": 1,
   "label": "Nombre Proveedor",
   "read_only": 1
  },
  {
   "fieldname": "amended_from",
   "fieldtype": "Link",
   "label": "Amended From",
   "no_copy": 1,
   "options": "comprobante_retencion",
   "print_hide": 1,
   "read_only": 1
  },
  {
   "fieldname": "barcode_ca",
   "fieldtype": "Barcode",
   "label": "Clave de Acceso"
  },
  {
   "fieldname": "section_break_17",
   "fieldtype": "Section Break",
   "label": "SRI - Estado de Facturaci\u00f3n Electr\u00f3nica"
  },
  {
   "fieldname": "estadosri",
   "fieldtype": "Data",
   "in_list_view": 1,
   "in_preview": 1,
   "label": "Estado",
   "read_only": 1
  },
  {
   "fieldname": "fechahora",
   "fieldtype": "Data",
   "label": "Fecha y Hora",
   "read_only": 1
  },
  {
   "fieldname": "mensajesri",
   "fieldtype": "Text",
   "label": "Mensaje",
   "read_only": 1
  },
  {
   "fieldname": "section_break_21",
   "fieldtype": "Section Break",
   "hidden": 1
  },
  {
   "fieldname": "naming_series",
   "fieldtype": "Code",
   "hidden": 1,
   "label": "Codigo",
   "options": "COM-RET-"
  },
  {
   "fieldname": "ptoemi",
   "fieldtype": "Data",
   "hidden": 1
  },
  {
   "fieldname": "emisor",
   "fieldtype": "Data",
   "hidden": 1
  },
  {
   "fieldname": "sri_ambiente",
   "fieldtype": "Data",
   "hidden": 1
  },
  {
   "fieldname": "sri_establecimiento",
   "fieldtype": "Data",
   "hidden": 1
  },
  {
   "fieldname": "num_fac",
   "fieldtype": "Data"
  }
 ],
 "index_web_pages_for_search": 1,
 "is_submittable": 1,
 "links": [],
 "modified": "2023-08-24 11:49:26.197135",
 "modified_by": "Administrator",
 "module": "mod_compras",
 "name": "comprobante_retencion",
 "naming_rule": "By \"Naming Series\" field",
 "owner": "Administrator",
 "permissions": [
  {
   "create": 1,
   "delete": 1,
   "email": 1,
   "export": 1,
   "print": 1,
   "read": 1,
   "report": 1,
   "role": "System Manager",
   "share": 1,
   "write": 1
  },
  {
   "create": 1,
   "delete": 1,
   "email": 1,
   "export": 1,
   "print": 1,
   "read": 1,
   "report": 1,
   "role": "EMPRESA - BODEGA",
   "share": 1,
   "write": 1
  },
  {
   "create": 1,
   "delete": 1,
   "email": 1,
   "export": 1,
   "print": 1,
   "read": 1,
   "report": 1,
   "role": "EMPRESA - FACTURACION",
   "share": 1,
   "write": 1
  },
  {
   "create": 1,
   "delete": 1,
   "email": 1,
   "export": 1,
   "print": 1,
   "read": 1,
   "report": 1,
   "role": "EMPRESA -COMPRAS",
   "share": 1,
   "write": 1
  },
  {
   "create": 1,
   "delete": 1,
   "email": 1,
   "export": 1,
   "print": 1,
   "read": 1,
   "report": 1,
   "role": "EMPRESA - ADMINISTRADOR",
   "share": 1,
   "submit": 1,
   "write": 1
  }
 ],
 "sort_field": "modified",
 "sort_order": "DESC",
 "states": [],
 "title_field": "nombre_proveedor"
}