{
 "charts": [],
 "content": "[{\"id\":\"aqX6InPWpo\",\"type\":\"header\",\"data\":{\"text\":\"<span class=\\\"h4\\\">M\u00f3dulo de Bancos</span>\",\"col\":12}},{\"id\":\"wTF-K2K34M\",\"type\":\"card\",\"data\":{\"card_name\":\"Cobros de Clientes\",\"col\":4}},{\"id\":\"t-2aPalTG9\",\"type\":\"card\",\"data\":{\"card_name\":\"Pagos a proveedores\",\"col\":4}},{\"id\":\"jzXHdIJF77\",\"type\":\"card\",\"data\":{\"card_name\":\"Cheques Recibidos\",\"col\":4}},{\"id\":\"YHdKZ1FSPm\",\"type\":\"card\",\"data\":{\"card_name\":\"Caja\",\"col\":4}},{\"id\":\"XhWYlUDjn2\",\"type\":\"card\",\"data\":{\"card_name\":\"Bancos\",\"col\":4}},{\"id\":\"oCXpBKBXMY\",\"type\":\"card\",\"data\":{\"card_name\":\"Reportes\",\"col\":4}}]",
 "creation": "2022-10-03 14:40:37.249542",
 "custom_blocks": [],
 "docstatus": 0,
 "doctype": "Workspace",
 "for_user": "",
 "hide_custom": 0,
 "icon": "income",
 "idx": 0,
 "is_hidden": 0,
 "label": "mod_bancos",
 "links": [
  {
   "hidden": 0,
   "is_query_report": 0,
   "label": "Reportes",
   "link_count": 1,
   "onboard": 0,
   "type": "Card Break"
  },
  {
   "hidden": 0,
   "is_query_report": 1,
   "label": "Reporte de Cobros",
   "link_count": 0,
   "link_to": "reporte_cobros",
   "link_type": "Report",
   "onboard": 0,
   "type": "Link"
  },
  {
   "hidden": 0,
   "is_query_report": 0,
   "label": "Cheques Recibidos",
   "link_count": 1,
   "onboard": 0,
   "type": "Card Break"
  },
  {
   "hidden": 0,
   "is_query_report": 0,
   "label": "Cheques",
   "link_count": 0,
   "link_to": "cheque_postfechado",
   "link_type": "DocType",
   "onboard": 0,
   "type": "Link"
  },
  {
   "hidden": 0,
   "is_query_report": 0,
   "label": "Pagos a proveedores",
   "link_count": 1,
   "onboard": 0,
   "type": "Card Break"
  },
  {
   "hidden": 0,
   "is_query_report": 0,
   "label": "Registro de Pagos",
   "link_count": 0,
   "link_to": "Registro de Pagos",
   "link_type": "DocType",
   "onboard": 0,
   "type": "Link"
  },
  {
   "hidden": 0,
   "is_query_report": 0,
   "label": "Cobros de Clientes",
   "link_count": 1,
   "onboard": 0,
   "type": "Card Break"
  },
  {
   "hidden": 0,
   "is_query_report": 0,
   "label": "Registro de Cobros",
   "link_count": 0,
   "link_to": "Registro de Cobros",
   "link_type": "DocType",
   "onboard": 0,
   "type": "Link"
  },
  {
   "hidden": 0,
   "is_query_report": 0,
   "label": "Caja",
   "link_count": 1,
   "onboard": 0,
   "type": "Card Break"
  },
  {
   "hidden": 0,
   "is_query_report": 0,
   "label": "Cierre Caja",
   "link_count": 0,
   "link_to": "Cierre Caja",
   "link_type": "DocType",
   "onboard": 0,
   "type": "Link"
  },
  {
   "hidden": 0,
   "is_query_report": 0,
   "label": "Bancos",
   "link_count": 1,
   "onboard": 0,
   "type": "Card Break"
  },
  {
   "hidden": 0,
   "is_query_report": 0,
   "label": "Bancos",
   "link_count": 0,
   "link_to": "BANCOS",
   "link_type": "DocType",
   "onboard": 0,
   "type": "Link"
  }
 ],
 "modified": "2024-06-13 02:37:51.420651",
 "modified_by": "Administrator",
 "module": "mod_bancos",
 "name": "mod_bancos",
 "number_cards": [],
 "owner": "Administrator",
 "parent_page": "",
 "public": 1,
 "quick_lists": [],
 "roles": [],
 "sequence_id": 4.0,
 "shortcuts": [],
 "title": "mod_bancos"
}