{
 "charts": [],
 "content": "[{\"id\":\"BzG_2WiJAX\",\"type\":\"shortcut\",\"data\":{\"shortcut_name\":\"Acreditar Cuotas\",\"col\":3}},{\"id\":\"jgtLgehzT7\",\"type\":\"header\",\"data\":{\"text\":\"<span class=\\\"h4\\\">M\u00f3dulo de Cr\u00e9dito</span>\",\"col\":12}},{\"id\":\"ls8Nol3Rgl\",\"type\":\"card\",\"data\":{\"card_name\":\"Maestros\",\"col\":4}}]",
 "creation": "2022-10-08 05:07:02.280916",
 "custom_blocks": [],
 "docstatus": 0,
 "doctype": "Workspace",
 "for_user": "",
 "hide_custom": 0,
 "icon": "loan",
 "idx": 0,
 "is_hidden": 0,
 "label": "mod_credito",
 "links": [
  {
   "hidden": 0,
   "is_query_report": 0,
   "label": "Maestros",
   "link_count": 5,
   "onboard": 0,
   "type": "Card Break"
  },
  {
   "hidden": 0,
   "is_query_report": 0,
   "label": "Otros Egresos",
   "link_count": 0,
   "link_to": "Solicitud",
   "link_type": "DocType",
   "onboard": 0,
   "type": "Link"
  },
  {
   "hidden": 0,
   "is_query_report": 0,
   "label": "Acreditar Cuotas",
   "link_count": 0,
   "link_to": "saldo_clientes",
   "link_type": "Page",
   "onboard": 0,
   "type": "Link"
  },
  {
   "hidden": 0,
   "is_query_report": 1,
   "label": "Estado de Cuenta ",
   "link_count": 0,
   "link_to": "estado_cuenta",
   "link_type": "Report",
   "onboard": 0,
   "type": "Link"
  },
  {
   "hidden": 0,
   "is_query_report": 0,
   "label": "estado_cuenta_todos",
   "link_count": 0,
   "link_to": "estado_cuenta_todos",
   "link_type": "Report",
   "onboard": 0,
   "type": "Link"
  },
  {
   "hidden": 0,
   "is_query_report": 0,
   "label": "reporte_cobros",
   "link_count": 0,
   "link_to": "reporte_cobros",
   "link_type": "Report",
   "onboard": 0,
   "type": "Link"
  }
 ],
 "modified": "2024-06-13 02:37:51.637035",
 "modified_by": "Administrator",
 "module": "mod_credito",
 "name": "mod_credito",
 "number_cards": [],
 "owner": "Administrator",
 "parent_page": "",
 "public": 1,
 "quick_lists": [],
 "roles": [],
 "sequence_id": 6.0,
 "shortcuts": [
  {
   "color": "Grey",
   "doc_view": "List",
   "label": "Acreditar Cuotas",
   "link_to": "saldo_clientes",
   "type": "Page"
  }
 ],
 "title": "mod_credito"
}