{
 "content": null,
 "creation": "2023-01-09 07:26:37.967538",
 "docstatus": 0,
 "doctype": "Page",
 "idx": 0,
 "modified": "2023-01-09 07:26:37.967538",
 "modified_by": "Administrator",
 "module": "mod_bancos",
 "name": "saldo_clientes2",
 "owner": "Administrator",
 "page_name": "saldo_clientes2",
 "roles": [
  {
   "role": "EMPRESA - ADMINISTRADOR"
  }
 ],
 "script": null,
 "standard": "Yes",
 "style": null,
 "system_page": 0
}