{
 "actions": [],
 "allow_rename": 1,
 "creation": "2022-10-10 06:02:58.798092",
 "doctype": "DocType",
 "editable_grid": 1,
 "engine": "InnoDB",
 "field_order": [
  "inventarios_section",
  "cnfg_inv_negativo",
  "cnfg_inv_tallas",
  "ventas_section",
  "transporte",
  "producto",
  "notas_de_cr\u00e9dito",
  "producto_desc",
  "apertura_y_cierre_de_caja_section",
  "cierre_caja",
  "impuestos_section",
  "iva_actual"
 ],
 "fields": [
  {
   "fieldname": "inventarios_section",
   "fieldtype": "Section Break",
   "label": "Inventarios"
  },
  {
   "default": "0",
   "fieldname": "cnfg_inv_negativo",
   "fieldtype": "Check",
   "label": "Permitir stock negativo para facturaci\u00f3n"
  },
  {
   "default": "0",
   "description": "En ordenes de Producci\u00f3n, cuando este marcado, permite agregar productos con sus tallas",
   "fieldname": "cnfg_inv_tallas",
   "fieldtype": "Check",
   "label": "Productos por tallas"
  },
  {
   "fieldname": "ventas_section",
   "fieldtype": "Section Break",
   "label": "Ventas"
  },
  {
   "default": "0",
   "fieldname": "transporte",
   "fieldtype": "Check",
   "label": "Incluir transporte en facturas"
  },
  {
   "depends_on": "eval:doc.transporte == 1",
   "fieldname": "producto",
   "fieldtype": "Link",
   "label": "Cuenta de Transporte",
   "options": "Productos"
  },
  {
   "fieldname": "producto_desc",
   "fieldtype": "Link",
   "label": "Cuenta Descuento en Ventas",
   "options": "Productos"
  },
  {
   "fieldname": "notas_de_cr\u00e9dito",
   "fieldtype": "Section Break",
   "label": "Notas de cr\u00e9dito"
  },
  {
   "fieldname": "apertura_y_cierre_de_caja_section",
   "fieldtype": "Section Break",
   "label": "Apertura y Cierre de Caja"
  },
  {
   "default": "0",
   "description": "Cuando se activa esta opci\u00f3n el sistema solicitara que las facturas con pago en efectivo se lleven con apertura y cierre de caja",
   "fieldname": "cierre_caja",
   "fieldtype": "Check",
   "label": "Activar"
  },
  {
   "fieldname": "impuestos_section",
   "fieldtype": "Section Break",
   "label": "Impuestos"
  },
  {
   "fieldname": "iva_actual",
   "fieldtype": "Link",
   "label": "Iva Actual",
   "options": "Impuestos Venta"
  }
 ],
 "index_web_pages_for_search": 1,
 "issingle": 1,
 "links": [],
 "modified": "2024-03-30 05:59:27.069918",
 "modified_by": "Administrator",
 "module": "mod_inventarios",
 "name": "configuraciones_generales",
 "owner": "Administrator",
 "permissions": [
  {
   "create": 1,
   "delete": 1,
   "email": 1,
   "print": 1,
   "read": 1,
   "role": "System Manager",
   "share": 1,
   "write": 1
  },
  {
   "create": 1,
   "delete": 1,
   "email": 1,
   "print": 1,
   "read": 1,
   "role": "EMPRESA - ADMINISTRADOR",
   "share": 1,
   "write": 1
  }
 ],
 "sort_field": "modified",
 "sort_order": "DESC",
 "states": []
}