{
 "actions": [],
 "allow_rename": 1,
 "autoname": "field:identificador",
 "creation": "2022-07-03 08:59:56.265918",
 "doctype": "DocType",
 "editable_grid": 1,
 "engine": "InnoDB",
 "field_order": [
  "identificador",
  "descripcion",
  "section_break_3",
  "ventas",
  "column_break_5",
  "compras",
  "column_break_7",
  "inventarios",
  "section_break_9",
  "plan_impuestos_detalle_int"
 ],
 "fields": [
  {
   "fieldname": "identificador",
   "fieldtype": "Data",
   "in_list_view": 1,
   "label": "Identificador",
   "reqd": 1,
   "unique": 1
  },
  {
   "fieldname": "descripcion",
   "fieldtype": "Data",
   "label": "Descripci\u00f3n"
  },
  {
   "fieldname": "section_break_3",
   "fieldtype": "Section Break"
  },
  {
   "default": "0",
   "fieldname": "ventas",
   "fieldtype": "Check",
   "label": "Modulo de Ventas"
  },
  {
   "fieldname": "column_break_5",
   "fieldtype": "Column Break"
  },
  {
   "default": "0",
   "fieldname": "compras",
   "fieldtype": "Check",
   "label": "Modulo de Compras"
  },
  {
   "fieldname": "column_break_7",
   "fieldtype": "Column Break"
  },
  {
   "default": "0",
   "fieldname": "inventarios",
   "fieldtype": "Check",
   "label": "Modulo de Inventarios"
  },
  {
   "fieldname": "section_break_9",
   "fieldtype": "Section Break"
  },
  {
   "fieldname": "plan_impuestos_detalle_int",
   "fieldtype": "Table",
   "label": "plan_impuestos_detalle_int",
   "options": "plan_impuestos_detalle_int"
  }
 ],
 "index_web_pages_for_search": 1,
 "links": [],
 "modified": "2023-09-03 05:37:16.382433",
 "modified_by": "Administrator",
 "module": "mod_contabilidad",
 "name": "plan_impuestos",
 "name_case": "UPPER CASE",
 "naming_rule": "By fieldname",
 "owner": "Administrator",
 "permissions": [
  {
   "create": 1,
   "delete": 1,
   "email": 1,
   "export": 1,
   "print": 1,
   "read": 1,
   "report": 1,
   "role": "System Manager",
   "share": 1,
   "write": 1
  }
 ],
 "sort_field": "modified",
 "sort_order": "DESC",
 "states": []
}