{
 "actions": [],
 "allow_rename": 1,
 "creation": "2022-06-11 16:05:50.338771",
 "doctype": "DocType",
 "editable_grid": 1,
 "engine": "InnoDB",
 "field_order": [
  "productos",
  "cantidad"
 ],
 "fields": [
  {
   "fieldname": "productos",
   "fieldtype": "Link",
   "in_list_view": 1,
   "label": "Producto",
   "options": "Productos",
   "reqd": 1
  },
  {
   "fieldname": "cantidad",
   "fieldtype": "Float",
   "in_list_view": 1,
   "label": "Cantidad",
   "reqd": 1
  }
 ],
 "index_web_pages_for_search": 1,
 "istable": 1,
 "links": [],
 "modified": "2022-06-11 16:06:12.001313",
 "modified_by": "Administrator",
 "module": "mod_producion",
 "name": "bom_productos",
 "owner": "Administrator",
 "permissions": [],
 "sort_field": "modified",
 "sort_order": "DESC"
}