{
 "actions": [],
 "autoname": "field:nombre",
 "creation": "2019-04-25 19:57:15.565621",
 "doctype": "DocType",
 "engine": "InnoDB",
 "field_order": [
  "nombre",
  "descripcion",
  "emisor"
 ],
 "fields": [
  {
   "fieldname": "nombre",
   "fieldtype": "Data",
   "in_list_view": 1,
   "label": "Nombre",
   "reqd": 1,
   "unique": 1
  },
  {
   "fieldname": "descripcion",
   "fieldtype": "Data",
   "label": "Descripci\u00f3n"
  },
  {
   "fieldname": "emisor",
   "fieldtype": "Link",
   "hidden": 1,
   "label": "Emisor",
   "options": "Emisor"
  }
 ],
 "links": [],
 "modified": "2023-08-24 12:05:18.151810",
 "modified_by": "Administrator",
 "module": "mod_bancos",
 "name": "BANCOS",
 "naming_rule": "By fieldname",
 "owner": "Administrator",
 "permissions": [
  {
   "create": 1,
   "delete": 1,
   "email": 1,
   "export": 1,
   "print": 1,
   "read": 1,
   "report": 1,
   "role": "System Manager",
   "share": 1,
   "write": 1
  },
  {
   "create": 1,
   "delete": 1,
   "email": 1,
   "export": 1,
   "print": 1,
   "read": 1,
   "report": 1,
   "role": "EMPRESA - ADMINISTRADOR",
   "share": 1,
   "write": 1
  },
  {
   "create": 1,
   "delete": 1,
   "email": 1,
   "export": 1,
   "print": 1,
   "read": 1,
   "report": 1,
   "role": "EMPRESA - FACTURACION",
   "share": 1,
   "write": 1
  },
  {
   "email": 1,
   "export": 1,
   "print": 1,
   "read": 1,
   "report": 1,
   "role": "EMPRESA - VENDEDOR",
   "share": 1
  },
  {
   "create": 1,
   "delete": 1,
   "email": 1,
   "export": 1,
   "print": 1,
   "read": 1,
   "report": 1,
   "role": "EMPRESA -COMPRAS",
   "share": 1,
   "write": 1
  }
 ],
 "quick_entry": 1,
 "sort_field": "modified",
 "sort_order": "ASC",
 "states": [],
 "track_changes": 1
}