{
 "actions": [],
 "creation": "2019-04-19 22:18:36.392917",
 "doctype": "DocType",
 "editable_grid": 1,
 "engine": "InnoDB",
 "field_order": [
  "nombre",
  "valor"
 ],
 "fields": [
  {
   "fieldname": "nombre",
   "fieldtype": "Data",
   "in_list_view": 1,
   "label": "Descripci\u00f3n",
   "reqd": 1
  },
  {
   "fieldname": "valor",
   "fieldtype": "Data",
   "in_list_view": 1,
   "label": "Contenido",
   "reqd": 1
  }
 ],
 "istable": 1,
 "links": [],
 "modified": "2022-06-13 18:54:20.432778",
 "modified_by": "Administrator",
 "module": "mod_ventas",
 "name": "infoAdicional",
 "owner": "Administrator",
 "permissions": [],
 "quick_entry": 1,
 "sort_field": "modified",
 "sort_order": "ASC",
 "track_changes": 1
}