{
 "actions": [],
 "creation": "2020-04-26 17:04:34.303969",
 "doctype": "DocType",
 "editable_grid": 1,
 "engine": "InnoDB",
 "field_order": [
  "producto",
  "cantidad"
 ],
 "fields": [
  {
   "fieldname": "producto",
   "fieldtype": "Link",
   "in_list_view": 1,
   "label": "Producto",
   "options": "Productos"
  },
  {
   "fieldname": "cantidad",
   "fieldtype": "Float",
   "in_list_view": 1,
   "label": "Cantidad"
  }
 ],
 "istable": 1,
 "links": [],
 "modified": "2022-06-26 14:43:09.367547",
 "modified_by": "Administrator",
 "module": "mod_inventarios",
 "name": "detingresoproductos",
 "owner": "Administrator",
 "permissions": [],
 "quick_entry": 1,
 "sort_field": "modified",
 "sort_order": "DESC",
 "track_changes": 1
}